forcats: Working with factor data in R · Rsquared Academy Blog
…
Introduction

This is the 12th post in the series Data Wrangling with R. In the previous post, we learnt to manipulate strings using the stringr package. In this post, we will learn to work with categorical/qualitative data in R using forcats. Let us begin by installing and loading forcats and a set of other pacakges we will be using.

We will use a case study to explore the various features of the forcats package. You can download the data for the case study from here or directly import the data using the readr package.

ecom <- readr::read_csv('https://raw.githubusercontent.com/rsquaredacademy/datasets/master/web.csv')
ecom

## # A tibble: 1,000 x 11
##       id referrer device bouncers n_visit n_pages duration        country
##    <int>    <chr>  <chr>    <chr>   <int>   <dbl>    <dbl>          <chr>
##  1     1   google laptop     true      10       1      693 Czech Republic
##  2     2    yahoo tablet     true       9       1      459          Yemen
##  3     3   direct laptop     true       0       1      996         Brazil
##  4     4     bing tablet    false       3      18      468          China
##  5     5    yahoo mobile     true       9       1      955         Poland
##  6     6    yahoo laptop    false       5       5      135   South Africa
##  7     7    yahoo mobile     true      10       1       75     Bangladesh
##  8     8   direct mobile     true      10       1      908      Indonesia
##  9     9     bing mobile    false       3      19      209    Netherlands
## 10    10   google mobile     true       6       1      208 Czech Republic
## # ... with 990 more rows, and 3 more variables: purchase <chr>,
## #   order_items <dbl>, order_value <dbl>
…
traffic <- readr::read_csv('https://raw.githubusercontent.com/rsquaredacademy/datasets/master/web_traffic.csv')
traffic

## # A tibble: 48,232 x 1
##    traffics
##       <chr>
##  1   google
##  2   google
##  3   google
##  4   google
##  5   google
##  6   google
##  7   google
##  8   google
##  9   google
## 10   google
## # ... with 48,222 more rows
…
