Introduction to tibbles · Rsquared Academy Blog
…
## The following objects are masked from 'package:stats':
## 
##     filter, lag

## The following objects are masked from 'package:base':
## 
##     intersect, setdiff, setequal, union

tibble(x = letters,
       y = 1:26,
       z = sample(100, 26))

## # A tibble: 26 × 3
##        x     y     z
##    <chr> <int> <int>
## 1      a     1   100
## 2      b     2    19
## 3      c     3    93
## 4      d     4    52
## 5      e     5    66
## 6      f     6    68
## 7      g     7    58
## 8      h     8     9
## 9      i     9    99
## 10     j    10    95
## # ... with 16 more rows
…
names(tibble(`order value` = 10))

## [1] "order value"

tibble never prints all the rows

tibble only shows the first ten rows and all the columns that fit on one screen. Below the column names, it prints the column type as well. Let us look at an example:

x <- 1:100
y <- letters[1]
z <- sample(c(TRUE, FALSE), 100, replace = TRUE)
tibble(x, y, z)

## # A tibble: 100 × 3
##        x     y     z
##    <int> <chr> <lgl>
## 1      1     a  TRUE
## 2      2     a  TRUE
## 3      3     a  TRUE
## 4      4     a  TRUE
## 5      5     a FALSE
## 6      6     a FALSE
## 7      7     a FALSE
## 8      8     a  TRUE
## 9      9     a  TRUE
## 10    10     a FALSE
## # ... with 90 more rows
…
data.frame

list

matrix

table

tbl_df

DataFrames

as_tibble(iris)

## # A tibble: 150 × 5
##    Sepal.Length Sepal.Width Petal.Length Petal.Width Species
##           <dbl>       <dbl>        <dbl>       <dbl>  <fctr>
## 1           5.1         3.5          1.4         0.2  setosa
## 2           4.9         3.0          1.4         0.2  setosa
## 3           4.7         3.2          1.3         0.2  setosa
## 4           4.6         3.1          1.5         0.2  setosa
## 5           5.0         3.6          1.4         0.2  setosa
## 6           5.4         3.9          1.7         0.4  setosa
## 7           4.6         3.4          1.4         0.3  setosa
## 8           5.0         3.4          1.5         0.2  setosa
## 9           4.4         2.9          1.4         0.2  setosa
## 10          4.9         3.1          1.5         0.1  setosa
## # ... with 140 more rows

Lists

l <- list(x = 1:32, y = sample(100, 32), z = replicate(32, letters, simplify = FALSE))
as_tibble(l)

## # A tibble: 32 × 3
##        x     y          z
##    <int> <int>     <list>
## 1      1    52 <chr [26]>
## 2      2    69 <chr [26]>
## 3      3    14 <chr [26]>
## 4      4    70 <chr [26]>
## 5      5    51 <chr [26]>
## 6      6    13 <chr [26]>
## 7      7    78 <chr [26]>
## 8      8    97 <chr [26]>
## 9      9    60 <chr [26]>
## 10    10    67 <chr [26]>
## # ... with 22 more rows

Matrix

m <- matrix(sample(1000, 2600, replace = TRUE), ncol = 26)
colnames(m) <- letters
as_tibble(m)

## # A tibble: 100 × 26
##        a     b     c     d     e     f     g     h     i     j     k     l
##    <int> <int> <int> <int> <int> <int> <int> <int> <int> <int> <int> <int>
## 1    738   270    58   204   876   106   659   830   968   206    81   181
## 2    969   148   541   816   796   707   250   552   556   604   879   159
## 3     88   663   488   371   532   216   956   345   147   634   191   270
## 4    969   904   714   921   324   515   771   522   160   437   837   928
## 5    401   465   567    63   120   111   833   479    44   593   662    93
## 6    229   613   308   839   792   901   720   403   631   594   109   143
## 7    605   249   137   845   147   270   570   845   281   371   630   394
## 8    871   623   169   740   691   501   567   144   690   900   335    29
## 9    784   490   936   140   828   988   916   912   642   910   460   423
## 10   309   583   112   476   502   345   376   457    59   946   937   439
## # ... with 90 more rows, and 14 more variables: m <int>, n <int>, o <int>,
## #   p <int>, q <int>, r <int>, s <int>, t <int>, u <int>, v <int>,
## #   w <int>, x <int>, y <int>, z <int>
…
## # A tibble: 3 × 2
##    Var1     n
##   <chr> <int>
## 1     4    11
## 2     6     7
## 3     8    14

tbl_df

k <- tbl_df(iris)
as_tibble(k)

## # A tibble: 150 × 5
##    Sepal.Length Sepal.Width Petal.Length Petal.Width Species
##           <dbl>       <dbl>        <dbl>       <dbl>  <fctr>
## 1           5.1         3.5          1.4         0.2  setosa
## 2           4.9         3.0          1.4         0.2  setosa
## 3           4.7         3.2          1.3         0.2  setosa
## 4           4.6         3.1          1.5         0.2  setosa
## 5           5.0         3.6          1.4         0.2  setosa
## 6           5.4         3.9          1.7         0.4  setosa
## 7           4.6         3.4          1.4         0.3  setosa
## 8           5.0         3.4          1.5         0.2  setosa
## 9           4.4         2.9          1.4         0.2  setosa
## 10          4.9         3.1          1.5         0.1  setosa
## # ... with 140 more rows
…
