Import Data into R - Part 2 · Rsquared Academy Blog
…
excel_sheets('sample2.xls')

## [1] "Sheet1" "Sheet2" "Sheet3"

Read Data

There are 3 sheets in the sample2.xls file. Let us read data from the first sheet. To do this, we will use read_excel() and specify:

the file name

the sheet number

read_excel('sample2.xls', sheet = 1)

## # A tibble: 135 x 13
##       ID Point Strain   sex `sex#`   age bodywt brainwt MedUNshOB Res1_sex
##    <dbl> <dbl>  <chr> <chr>  <dbl> <dbl>  <dbl>   <dbl>     <dbl>    <dbl>
##  1   169   0.3      B     F      2   189   29.4   495.8    31.976 11.49506
##  2   171   0.3      B     F      2    51   19.7   474.9    24.772  4.29106
##  3   232   0.3      B     M      1   294   35.0   476.1    24.836  4.44382
##  4  1709   0.3      B     M      1    70   26.0   478.5    22.957  2.56518
##  5   247   0.4      D     M      1   203   26.7   397.2    20.035 -0.35698
##  6   248   0.4      D     M      1   294   26.8   408.9    22.523  2.13082
##  7   871   0.4      D     M      1    56   23.7   419.2    20.617  0.22434
##  8  1541   0.4      D     M      1    65   16.2   402.4    18.144 -2.24814
##  9   101   1.0   BxD1     M      1    52   24.0   449.3    21.817  1.42492
## 10   104   1.0   BxD1     M      1    53   18.5   445.0    21.404  1.01182
## # ... with 125 more rows, and 3 more variables: `Res2_sex-age` <dbl>,
## #   `Res3_sex-age-bw` <dbl>, `Res4_sex-age-bw-brnw` <dbl>

Read Specific Cells

Sometimes you may want to read data from specific cells and not the entire sheet. In such cases, use range to specify the cells from which you want to read data. Let us look at an example:

# read data from sheet 2
read_excel('sample2.xls', sheet = 2)
## # A tibble: 41 x 3
##    Point        Strain      Res_4
##    <chr>         <chr>      <chr>
##  1   0.1        B6D2F1          x
##  2   0.2        D2B6F1          x
##  3   0.3 B  (C57BL/6J)    2.61265
##  4   0.4    D (DBA/2J)  -0.712858
##  5     1          BxD1   -2.52487
##  6     2          BxD2  -0.764992
##  7     5          BxD5  -0.659102
##  8     6          BxD6    3.94894
##  9     8          BxD8    1.65269
## 10     9          BxD9 -0.0555975
## # ... with 31 more rows
…
The cell_limits() function takes two inputs. The first input is the row and column number of the upper left cell. The second input is the row and column number of the lower right cell. In the above example, we read all the cell from the third row of the 1st column to the 5th row of the second column.

Read Single Column

Use cell_cols() and cell_rows() to read specific columns and rows.

# read second column
read_excel('sample2.xls', sheet = 2, range = cell_cols(2))
## # A tibble: 41 x 1
##           Strain
##            <chr>
##  1        B6D2F1
##  2        D2B6F1
##  3 B  (C57BL/6J)
##  4    D (DBA/2J)
##  5          BxD1
##  6          BxD2
##  7          BxD5
##  8          BxD6
##  9          BxD8
## 10          BxD9
## # ... with 31 more rows
…
If all the columns are the same type, you can mention the column type once and it will be recycled.

read_excel('sample2.xls', sheet = 2, col_types = c("numeric", "text", "numeric"))
## Warning in read_fun(path = path, sheet = sheet, limits = limits, shim =
## shim, : Expecting numeric in C2 / R2C3: got 'x'
## Warning in read_fun(path = path, sheet = sheet, limits = limits, shim =
## shim, : Expecting numeric in C3 / R3C3: got 'x'
## Warning in read_fun(path = path, sheet = sheet, limits = limits, shim =
## shim, : Expecting numeric in A24 / R24C1: got '24a'
## Warning in read_fun(path = path, sheet = sheet, limits = limits, shim =
## shim, : Expecting numeric in C24 / R24C3: got 'x'
## Warning in read_fun(path = path, sheet = sheet, limits = limits, shim =
## shim, : Expecting numeric in C41 / R41C3: got 'x'
## # A tibble: 41 x 3
##    Point        Strain      Res_4
##    <dbl>         <chr>      <dbl>
##  1   0.1        B6D2F1         NA
##  2   0.2        D2B6F1         NA
##  3   0.3 B  (C57BL/6J)  2.6126475
##  4   0.4    D (DBA/2J) -0.7128575
##  5   1.0          BxD1 -2.5248700
##  6   2.0          BxD2 -0.7649925
##  7   5.0          BxD5 -0.6591025
##  8   6.0          BxD6  3.9489433
##  9   8.0          BxD8  1.6526925
## 10   9.0          BxD9 -0.0555975
## # ... with 31 more rows

Others

You can specify the number of rows to skip before reading data using skip argument and the maximum number of rows to read using the n_max argument. Below are a couple of examples:

# skip first 3 rows
read_excel('sample2.xls', sheet = 2, skip = 3, col_names = FALSE)
## # A tibble: 39 x 3
##     X__1          X__2       X__3
##    <chr>         <chr>      <chr>
##  1   0.3 B  (C57BL/6J)    2.61265
##  2   0.4    D (DBA/2J)  -0.712858
##  3     1          BxD1   -2.52487
##  4     2          BxD2  -0.764992
##  5     5          BxD5  -0.659102
##  6     6          BxD6    3.94894
##  7     8          BxD8    1.65269
##  8     9          BxD9 -0.0555975
##  9    11         BxD11   -6.94433
## 10    12         BxD12   0.920397
## # ... with 29 more rows
…
