A complete guide to importing data into R · Rsquared Academy Blog
…
n_max
maximum number of records to read

na
specify how missing values are represented

General

You can use read_delim() and specify the separator using delim to read data from any delimited file. CSV (comma separated values) is a very popular file format. We can read data from CSV files using read_csv(). If the separator is ;, use read_csv2(). If the delimiter is a tab, use read_tsv().

# read_csv
read_csv('hsb2.csv')
## # A tibble: 200 x 11
##       id female  race   ses schtyp  prog  read write  math science socst
##    <int>  <int> <int> <int>  <int> <int> <int> <int> <int>   <int> <int>
##  1    70      0     4     1      1     1    57    52    41      47    57
##  2   121      1     4     2      1     3    68    59    53      63    61
##  3    86      0     4     3      1     1    44    33    54      58    31
##  4   141      0     4     3      1     3    63    44    47      53    56
##  5   172      0     4     2      1     2    47    52    57      53    61
##  6   113      0     4     2      1     2    44    52    51      63    61
##  7    50      0     3     2      1     1    50    59    42      53    61
##  8    11      0     1     2      1     2    34    46    45      39    36
##  9    84      0     4     2      1     1    63    57    54      58    51
## 10    48      0     3     2      1     2    57    55    52      50    51
## # ... with 190 more rows

# col_names
read_csv('hsb2.csv', col_names = FALSE)
## # A tibble: 201 x 11
##       X1     X2    X3    X4     X5    X6    X7    X8    X9     X10   X11
##    <chr>  <chr> <chr> <chr>  <chr> <chr> <chr> <chr> <chr>   <chr> <chr>
##  1    id female  race   ses schtyp  prog  read write  math science socst
##  2    70      0     4     1      1     1    57    52    41      47    57
##  3   121      1     4     2      1     3    68    59    53      63    61
##  4    86      0     4     3      1     1    44    33    54      58    31
##  5   141      0     4     3      1     3    63    44    47      53    56
##  6   172      0     4     2      1     2    47    52    57      53    61
##  7   113      0     4     2      1     2    44    52    51      63    61
##  8    50      0     3     2      1     1    50    59    42      53    61
##  9    11      0     1     2      1     2    34    46    45      39    36
## 10    84      0     4     2      1     1    63    57    54      58    51
## # ... with 191 more rows

# skip records
read_csv('hsb2.csv', col_names = FALSE, skip = 1)
## # A tibble: 200 x 11
##       X1    X2    X3    X4    X5    X6    X7    X8    X9   X10   X11
##    <int> <int> <int> <int> <int> <int> <int> <int> <int> <int> <int>
##  1    70     0     4     1     1     1    57    52    41    47    57
##  2   121     1     4     2     1     3    68    59    53    63    61
##  3    86     0     4     3     1     1    44    33    54    58    31
##  4   141     0     4     3     1     3    63    44    47    53    56
##  5   172     0     4     2     1     2    47    52    57    53    61
##  6   113     0     4     2     1     2    44    52    51    63    61
##  7    50     0     3     2     1     1    50    59    42    53    61
##  8    11     0     1     2     1     2    34    46    45    39    36
##  9    84     0     4     2     1     1    63    57    54    58    51
## 10    48     0     3     2     1     2    57    55    52    50    51
## # ... with 190 more rows

# max records to read
read_csv('hsb2.csv', n_max = 50)
## # A tibble: 50 x 11
##       id female  race   ses schtyp  prog  read write  math science socst
##    <int>  <int> <int> <int>  <int> <int> <int> <int> <int>   <int> <int>
##  1    70      0     4     1      1     1    57    52    41      47    57
##  2   121      1     4     2      1     3    68    59    53      63    61
##  3    86      0     4     3      1     1    44    33    54      58    31
##  4   141      0     4     3      1     3    63    44    47      53    56
##  5   172      0     4     2      1     2    47    52    57      53    61
##  6   113      0     4     2      1     2    44    52    51      63    61
##  7    50      0     3     2      1     1    50    59    42      53    61
##  8    11      0     1     2      1     2    34    46    45      39    36
##  9    84      0     4     2      1     1    63    57    54      58    51
## 10    48      0     3     2      1     2    57    55    52      50    51
## # ... with 40 more rows
…
