Data Manipulation in R with dplyr - Part 2 · Rsquared Academy Blog
…
order <- readr::read_csv('https://raw.githubusercontent.com/rsquaredacademy/datasets/master/order.csv')

## Parsed with column specification:
## cols(
##   id = col_integer(),
##   order_data = col_character(),
##   order_number = col_integer(),
##   customer_id = col_integer(),
##   amount = col_double()
## )

order

## # A tibble: 300 x 5
##       id order_data order_number customer_id  amount
##    <int>      <chr>        <int>       <int>   <dbl>
##  1   368   7/2/2016       543346         352  364.97
##  2   286  11/2/2016       543390         305 2063.53
##  3    28  2/22/2017       543404          78  432.06
##  4   309   3/5/2017       543389         447  480.22
##  5     2 12/28/2016       543233         374  235.37
##  6    31 12/30/2016       543475          48 2745.24
##  7   179 12/21/2016       543155         280 2358.25
##  8   484 11/24/2016       543485         445 1030.58
##  9   115   9/9/2016       543489         278 1217.50
## 10   340   5/6/2017       543246         131 1184.39
## # ... with 290 more rows

customer <- readr::read_csv('https://raw.githubusercontent.com/rsquaredacademy/datasets/master/customer.csv')

## Parsed with column specification:
## cols(
##   id = col_integer(),
##   first_name = col_character(),
##   last_name = col_character(),
##   city = col_character(),
##   phone = col_character()
## )

customer

## # A tibble: 91 x 5
##       id first_name             last_name       city           phone
##    <int>      <chr>                 <chr>      <chr>           <chr>
##  1     1  Elbertine            Robertucci California 1-(805)951-9083
##  2     2   Marcella              Kilshall   Colorado 1-(303)642-9320
##  3     3      Daria de la Valette Parisot    Florida 1-(352)629-9125
##  4     4   Sherilyn                  Widd Distric... 1-(202)453-3897
##  5     5      Ketty               Cridlin      Texas 1-(214)455-2169
##  6     6     Jethro            Lubomirski California 1-(510)278-9668
##  7     7   Jeremiah              Carrabot California 1-(559)713-9864
##  8     8 Constancia              Eastmead      Texas 1-(806)550-1701
##  9     9      Muire             Prestwich      Idaho 1-(208)811-7437
## 10    10    Abigail                Craigs      Texas 1-(469)653-1340
## # ... with 81 more rows

inner join

customer %>%
  inner_join(order)

## Joining, by = "id"

## # A tibble: 55 x 9
##       id first_name  last_name       city           phone order_data order_number customer_id  amount
##    <int>      <chr>      <chr>      <chr>           <chr>      <chr>        <int>       <int>   <dbl>
##  1     2   Marcella   Kilshall   Colorado 1-(303)642-9320 12/28/2016       543233         374  235.37
##  2     2   Marcella   Kilshall   Colorado 1-(303)642-9320  8/31/2016       543129         334 1150.40
##  3     5      Ketty    Cridlin      Texas 1-(214)455-2169  1/17/2017       543453         475  346.07
##  4     6     Jethro Lubomirski California 1-(510)278-9668  1/27/2017       543274         218 2317.16
##  5     7   Jeremiah   Carrabot California 1-(559)713-9864  6/21/2016       543423         282  135.53
##  6     7   Jeremiah   Carrabot California 1-(559)713-9864  2/13/2017       543379         346 1407.32
##  7     7   Jeremiah   Carrabot California 1-(559)713-9864   7/8/2016       543477         483 1913.79
##  8     8 Constancia   Eastmead      Texas 1-(806)550-1701  11/5/2016       543157         341 2461.46
##  9     8 Constancia   Eastmead      Texas 1-(806)550-1701  5/19/2017       543117         364 2714.20
## 10     9      Muire  Prestwich      Idaho 1-(208)811-7437 12/28/2016       543201         207  187.03
## # ... with 45 more rows

left join

customer %>%
  left_join(order)

## Joining, by = "id"

## # A tibble: 104 x 9
##       id first_name             last_name       city           phone order_data order_number customer_id  amount
##    <int>      <chr>                 <chr>      <chr>           <chr>      <chr>        <int>       <int>   <dbl>
##  1     1  Elbertine            Robertucci California 1-(805)951-9083       <NA>           NA          NA      NA
##  2     2   Marcella              Kilshall   Colorado 1-(303)642-9320 12/28/2016       543233         374  235.37
##  3     2   Marcella              Kilshall   Colorado 1-(303)642-9320  8/31/2016       543129         334 1150.40
##  4     3      Daria de la Valette Parisot    Florida 1-(352)629-9125       <NA>           NA          NA      NA
##  5     4   Sherilyn                  Widd Distric... 1-(202)453-3897       <NA>           NA          NA      NA
##  6     5      Ketty               Cridlin      Texas 1-(214)455-2169  1/17/2017       543453         475  346.07
##  7     6     Jethro            Lubomirski California 1-(510)278-9668  1/27/2017       543274         218 2317.16
##  8     7   Jeremiah              Carrabot California 1-(559)713-9864  6/21/2016       543423         282  135.53
##  9     7   Jeremiah              Carrabot California 1-(559)713-9864  2/13/2017       543379         346 1407.32
## 10     7   Jeremiah              Carrabot California 1-(559)713-9864   7/8/2016       543477         483 1913.79
## # ... with 94 more rows

right join

customer %>%
  right_join(order)

## Joining, by = "id"

## # A tibble: 300 x 9
##       id first_name last_name      city           phone order_data order_number customer_id  amount
##    <int>      <chr>     <chr>     <chr>           <chr>      <chr>        <int>       <int>   <dbl>
##  1   368       <NA>      <NA>      <NA>            <NA>   7/2/2016       543346         352  364.97
##  2   286       <NA>      <NA>      <NA>            <NA>  11/2/2016       543390         305 2063.53
##  3    28      Avrit    Lerven     Texas 1-(817)651-5322  2/22/2017       543404          78  432.06
##  4   309       <NA>      <NA>      <NA>            <NA>   3/5/2017       543389         447  480.22
##  5     2   Marcella  Kilshall  Colorado 1-(303)642-9320 12/28/2016       543233         374  235.37
##  6    31    Clemmie   McKeady Tennessee 1-(865)334-8263 12/30/2016       543475          48 2745.24
##  7   179       <NA>      <NA>      <NA>            <NA> 12/21/2016       543155         280 2358.25
##  8   484       <NA>      <NA>      <NA>            <NA> 11/24/2016       543485         445 1030.58
##  9   115       <NA>      <NA>      <NA>            <NA>   9/9/2016       543489         278 1217.50
## 10   340       <NA>      <NA>      <NA>            <NA>   5/6/2017       543246         131 1184.39
## # ... with 290 more rows

semi join

customer %>%
  semi_join(order)

## Joining, by = "id"

## # A tibble: 42 x 5
##       id first_name   last_name       city           phone
##    <int>      <chr>       <chr>      <chr>           <chr>
##  1    28      Avrit      Lerven      Texas 1-(817)651-5322
##  2     2   Marcella    Kilshall   Colorado 1-(303)642-9320
##  3    31    Clemmie     McKeady  Tennessee 1-(865)334-8263
##  4     8 Constancia    Eastmead      Texas 1-(806)550-1701
##  5    16    Monique     Van Zon   Missouri 1-(314)444-6148
##  6    15  Valentijn      Reddel California 1-(562)760-7094
##  7    65       Thea       Prose      Texas 1-(214)513-8473
##  8    50     Trudie   Bartolijn       Iowa 1-(515)197-8097
##  9    47  Radcliffe        Aers California 1-(213)580-7332
## 10    41      Alana Biesterfeld California 1-(661)871-1329
## # ... with 32 more rows

anti join

customer %>%
  anti_join(order)

## Joining, by = "id"

## # A tibble: 49 x 5
##       id first_name             last_name       city           phone
##    <int>      <chr>                 <chr>      <chr>           <chr>
##  1     1  Elbertine            Robertucci California 1-(805)951-9083
##  2     3      Daria de la Valette Parisot    Florida 1-(352)629-9125
##  3     4   Sherilyn                  Widd Distric... 1-(202)453-3897
##  4    10    Abigail                Craigs      Texas 1-(469)653-1340
##  5    11      Wynne                 Roote    Georgia 1-(404)911-0264
##  6    12     Pietra                Hynson  Minnesota 1-(651)506-8628
##  7    13       Bram                 Valde       Iowa 1-(515)637-1353
##  8    14       Rees           MacAllester   New York 1-(716)187-2661
##  9    17     Orazio                Boddis  Louisiana 1-(318)313-4592
## 10    18      Mason             Letterick      Texas 1-(806)351-0113
## # ... with 39 more rows

full join

customer %>%
  full_join(order)

## Joining, by = "id"

## # A tibble: 349 x 9
##       id first_name             last_name       city           phone order_data order_number customer_id  amount
##    <int>      <chr>                 <chr>      <chr>           <chr>      <chr>        <int>       <int>   <dbl>
##  1     1  Elbertine            Robertucci California 1-(805)951-9083       <NA>           NA          NA      NA
##  2     2   Marcella              Kilshall   Colorado 1-(303)642-9320 12/28/2016       543233         374  235.37
##  3     2   Marcella              Kilshall   Colorado 1-(303)642-9320  8/31/2016       543129         334 1150.40
##  4     3      Daria de la Valette Parisot    Florida 1-(352)629-9125       <NA>           NA          NA      NA
##  5     4   Sherilyn                  Widd Distric... 1-(202)453-3897       <NA>           NA          NA      NA
##  6     5      Ketty               Cridlin      Texas 1-(214)455-2169  1/17/2017       543453         475  346.07
##  7     6     Jethro            Lubomirski California 1-(510)278-9668  1/27/2017       543274         218 2317.16
##  8     7   Jeremiah              Carrabot California 1-(559)713-9864  6/21/2016       543423         282  135.53
##  9     7   Jeremiah              Carrabot California 1-(559)713-9864  2/13/2017       543379         346 1407.32
## 10     7   Jeremiah              Carrabot California 1-(559)713-9864   7/8/2016       543477         483 1913.79
## # ... with 339 more rows
…
