How to work with dates in R · Rsquared Academy Blog
…
how many invoices were settled within due date

how many invoices are due in each quarter

what is the average duration between invoice date and payment date

transact %>%
  mutate(
    due_day = day(Due),
    due_month = month(Due),
    due_year = year(Due)
  )

## # A tibble: 2,466 x 6
##       Invoice        Due    Payment due_day due_month due_year
##        <date>     <date>     <date>   <int>     <dbl>    <dbl>
##  1 2013-01-02 2013-02-01 2013-01-15       1         2     2013
##  2 2013-01-26 2013-02-25 2013-03-03      25         2     2013
##  3 2013-07-03 2013-08-02 2013-07-08       2         8     2013
##  4 2013-02-10 2013-03-12 2013-03-17      12         3     2013
##  5 2012-10-25 2012-11-24 2012-11-28      24        11     2012
##  6 2012-01-27 2012-02-26 2012-02-22      26         2     2012
##  7 2013-08-13 2013-09-12 2013-09-09      12         9     2013
##  8 2012-12-16 2013-01-15 2013-01-12      15         1     2013
##  9 2012-05-14 2012-06-13 2012-07-01      13         6     2012
## 10 2013-07-01 2013-07-31 2013-07-26      31         7     2013
## # ... with 2,456 more rows

transact %>%
  mutate(
    days_to_pay = Payment - Invoice
  )

## # A tibble: 2,466 x 4
##       Invoice        Due    Payment days_to_pay
##        <date>     <date>     <date>      <time>
##  1 2013-01-02 2013-02-01 2013-01-15     13 days
##  2 2013-01-26 2013-02-25 2013-03-03     36 days
##  3 2013-07-03 2013-08-02 2013-07-08      5 days
##  4 2013-02-10 2013-03-12 2013-03-17     35 days
##  5 2012-10-25 2012-11-24 2012-11-28     34 days
##  6 2012-01-27 2012-02-26 2012-02-22     26 days
##  7 2013-08-13 2013-09-12 2013-09-09     27 days
##  8 2012-12-16 2013-01-15 2013-01-12     27 days
##  9 2012-05-14 2012-06-13 2012-07-01     48 days
## 10 2013-07-01 2013-07-31 2013-07-26     25 days
## # ... with 2,456 more rows

transact %>%
  mutate(
    delay = Payment - Due
  )

## # A tibble: 2,466 x 4
##       Invoice        Due    Payment    delay
##        <date>     <date>     <date>   <time>
##  1 2013-01-02 2013-02-01 2013-01-15 -17 days
##  2 2013-01-26 2013-02-25 2013-03-03   6 days
##  3 2013-07-03 2013-08-02 2013-07-08 -25 days
##  4 2013-02-10 2013-03-12 2013-03-17   5 days
##  5 2012-10-25 2012-11-24 2012-11-28   4 days
##  6 2012-01-27 2012-02-26 2012-02-22  -4 days
##  7 2013-08-13 2013-09-12 2013-09-09  -3 days
##  8 2012-12-16 2013-01-15 2013-01-12  -3 days
##  9 2012-05-14 2012-06-13 2012-07-01  18 days
## 10 2013-07-01 2013-07-31 2013-07-26  -5 days
## # ... with 2,456 more rows

transact %>%
  mutate(
    due_year = year(Due),
    is_leap = leap_year(due_year)
  )

## # A tibble: 2,466 x 5
##       Invoice        Due    Payment due_year is_leap
##        <date>     <date>     <date>    <dbl>   <lgl>
##  1 2013-01-02 2013-02-01 2013-01-15     2013   FALSE
##  2 2013-01-26 2013-02-25 2013-03-03     2013   FALSE
##  3 2013-07-03 2013-08-02 2013-07-08     2013   FALSE
##  4 2013-02-10 2013-03-12 2013-03-17     2013   FALSE
##  5 2012-10-25 2012-11-24 2012-11-28     2012    TRUE
##  6 2012-01-27 2012-02-26 2012-02-22     2012    TRUE
##  7 2013-08-13 2013-09-12 2013-09-09     2013   FALSE
##  8 2012-12-16 2013-01-15 2013-01-12     2013   FALSE
##  9 2012-05-14 2012-06-13 2012-07-01     2012    TRUE
## 10 2013-07-01 2013-07-31 2013-07-26     2013   FALSE
## # ... with 2,456 more rows

transact %>%
  mutate(
    due_day = day(Due),
    due_month = month(Due),
    days_due_month = days_in_month(due_month),
    due_year = year(Due),
    is_leap = leap_year(due_year)
  ) %>%
  select(-(Invoice), -(Payment)) %>%
  filter(due_month == 2)

## # A tibble: 187 x 6
##           Due due_day due_month days_due_month due_year is_leap
##        <date>   <int>     <dbl>          <int>    <dbl>   <lgl>
##  1 2013-02-01       1         2             28     2013   FALSE
##  2 2013-02-25      25         2             28     2013   FALSE
##  3 2012-02-26      26         2             28     2012    TRUE
##  4 2013-02-05       5         2             28     2013   FALSE
##  5 2012-02-23      23         2             28     2012    TRUE
##  6 2012-02-12      12         2             28     2012    TRUE
##  7 2012-02-12      12         2             28     2012    TRUE
##  8 2012-02-02       2         2             28     2012    TRUE
##  9 2012-02-21      21         2             28     2012    TRUE
## 10 2012-02-29      29         2             28     2012    TRUE
## # ... with 177 more rows

transact %>%
  mutate(
    inv_due_interval = interval(Invoice, Due),
    due_next = Due + days(1),
    due_pay_interval = interval(due_next, Payment),
    overlaps = int_overlaps(inv_due_interval, due_pay_interval)
  ) %>%
  select(inv_due_interval, due_next, due_pay_interval, overlaps)

## # A tibble: 2,466 x 4
##                  inv_due_interval   due_next
##                    <S4: Interval>     <date>
##  1 2013-01-02 UTC--2013-02-01 UTC 2013-02-02
##  2 2013-01-26 UTC--2013-02-25 UTC 2013-02-26
##  3 2013-07-03 UTC--2013-08-02 UTC 2013-08-03
##  4 2013-02-10 UTC--2013-03-12 UTC 2013-03-13
##  5 2012-10-25 UTC--2012-11-24 UTC 2012-11-25
##  6 2012-01-27 UTC--2012-02-26 UTC 2012-02-27
##  7 2013-08-13 UTC--2013-09-12 UTC 2013-09-13
##  8 2012-12-16 UTC--2013-01-15 UTC 2013-01-16
##  9 2012-05-14 UTC--2012-06-13 UTC 2012-06-14
## 10 2013-07-01 UTC--2013-07-31 UTC 2013-08-01
## # ... with 2,456 more rows, and 2 more variables: due_pay_interval <S4:
## #   Interval>, overlaps <lgl>

# using int_shift
transact %>%
  mutate(
    inv_due_interval = interval(Invoice, Due),
    due_pay_interval = interval(Due, Payment),  
    due_pay_next = int_shift(due_pay_interval, by = days(1)),
    overlaps = int_overlaps(inv_due_interval, due_pay_next)
  ) %>%
  select(inv_due_interval, due_pay_next, overlaps)

## # A tibble: 2,466 x 3
##                  inv_due_interval                   due_pay_next overlaps
##                    <S4: Interval>                 <S4: Interval>    <lgl>
##  1 2013-01-02 UTC--2013-02-01 UTC 2013-02-02 UTC--2013-01-16 UTC     TRUE
##  2 2013-01-26 UTC--2013-02-25 UTC 2013-02-26 UTC--2013-03-04 UTC    FALSE
##  3 2013-07-03 UTC--2013-08-02 UTC 2013-08-03 UTC--2013-07-09 UTC     TRUE
##  4 2013-02-10 UTC--2013-03-12 UTC 2013-03-13 UTC--2013-03-18 UTC    FALSE
##  5 2012-10-25 UTC--2012-11-24 UTC 2012-11-25 UTC--2012-11-29 UTC    FALSE
##  6 2012-01-27 UTC--2012-02-26 UTC 2012-02-27 UTC--2012-02-23 UTC     TRUE
##  7 2013-08-13 UTC--2013-09-12 UTC 2013-09-13 UTC--2013-09-10 UTC     TRUE
##  8 2012-12-16 UTC--2013-01-15 UTC 2013-01-16 UTC--2013-01-13 UTC     TRUE
##  9 2012-05-14 UTC--2012-06-13 UTC 2012-06-14 UTC--2012-07-02 UTC    FALSE
## 10 2013-07-01 UTC--2013-07-31 UTC 2013-08-01 UTC--2013-07-27 UTC     TRUE
## # ... with 2,456 more rows

transact %>%
  mutate(
    inv_due_interval = interval(Invoice, Due),
    overlaps = Payment %within% inv_due_interval
  ) %>%
  select(Due, Payment, overlaps)

## # A tibble: 2,466 x 3
##           Due    Payment overlaps
##        <date>     <date>    <lgl>
##  1 2013-02-01 2013-01-15     TRUE
##  2 2013-02-25 2013-03-03    FALSE
##  3 2013-08-02 2013-07-08     TRUE
##  4 2013-03-12 2013-03-17    FALSE
##  5 2012-11-24 2012-11-28    FALSE
##  6 2012-02-26 2012-02-22     TRUE
##  7 2013-09-12 2013-09-09     TRUE
##  8 2013-01-15 2013-01-12     TRUE
##  9 2012-06-13 2012-07-01    FALSE
## 10 2013-07-31 2013-07-26     TRUE
## # ... with 2,456 more rows

transact %>%
  mutate(
    Quarter = quarter(Due)
  )

## # A tibble: 2,466 x 4
##       Invoice        Due    Payment Quarter
##        <date>     <date>     <date>   <dbl>
##  1 2013-01-02 2013-02-01 2013-01-15       1
##  2 2013-01-26 2013-02-25 2013-03-03       1
##  3 2013-07-03 2013-08-02 2013-07-08       3
##  4 2013-02-10 2013-03-12 2013-03-17       1
##  5 2012-10-25 2012-11-24 2012-11-28       4
##  6 2012-01-27 2012-02-26 2012-02-22       1
##  7 2013-08-13 2013-09-12 2013-09-09       3
##  8 2012-12-16 2013-01-15 2013-01-12       1
##  9 2012-05-14 2012-06-13 2012-07-01       2
## 10 2013-07-01 2013-07-31 2013-07-26       3
## # ... with 2,456 more rows

transact %>%
  mutate(
    Quarter = quarter(Due, with_year = TRUE)
  )

## # A tibble: 2,466 x 4
##       Invoice        Due    Payment Quarter
##        <date>     <date>     <date>   <dbl>
##  1 2013-01-02 2013-02-01 2013-01-15  2013.1
##  2 2013-01-26 2013-02-25 2013-03-03  2013.1
##  3 2013-07-03 2013-08-02 2013-07-08  2013.3
##  4 2013-02-10 2013-03-12 2013-03-17  2013.1
##  5 2012-10-25 2012-11-24 2012-11-28  2012.4
##  6 2012-01-27 2012-02-26 2012-02-22  2012.1
##  7 2013-08-13 2013-09-12 2013-09-09  2013.3
##  8 2012-12-16 2013-01-15 2013-01-12  2013.1
##  9 2012-05-14 2012-06-13 2012-07-01  2012.2
## 10 2013-07-01 2013-07-31 2013-07-26  2013.3
## # ... with 2,456 more rows

transact %<>%
  mutate(
    days_to_pay = Payment - Invoice
  )

transact %>%
  mutate(
    dseconds = duration(as.numeric(days_to_pay), 'days')
  )

## # A tibble: 2,466 x 5
##       Invoice        Due    Payment days_to_pay            dseconds
##        <date>     <date>     <date>      <time>      <S4: Duration>
##  1 2013-01-02 2013-02-01 2013-01-15     13 days 1123200s (~13 days)
##  2 2013-01-26 2013-02-25 2013-03-03     36 days 3110400s (~36 days)
##  3 2013-07-03 2013-08-02 2013-07-08      5 days   432000s (~5 days)
##  4 2013-02-10 2013-03-12 2013-03-17     35 days 3024000s (~35 days)
##  5 2012-10-25 2012-11-24 2012-11-28     34 days 2937600s (~34 days)
##  6 2012-01-27 2012-02-26 2012-02-22     26 days 2246400s (~26 days)
##  7 2013-08-13 2013-09-12 2013-09-09     27 days 2332800s (~27 days)
##  8 2012-12-16 2013-01-15 2013-01-12     27 days 2332800s (~27 days)
##  9 2012-05-14 2012-06-13 2012-07-01     48 days 4147200s (~48 days)
## 10 2013-07-01 2013-07-31 2013-07-26     25 days 2160000s (~25 days)
## # ... with 2,456 more rows

transact %<>%
  mutate(
    inv_pay_int = interval(Invoice, Payment)
  )

transact %>%
  mutate(
    inv_pay_days = inv_pay_int / ddays()
  )

## # A tibble: 2,466 x 6
##       Invoice        Due    Payment days_to_pay
##        <date>     <date>     <date>      <time>
##  1 2013-01-02 2013-02-01 2013-01-15     13 days
##  2 2013-01-26 2013-02-25 2013-03-03     36 days
##  3 2013-07-03 2013-08-02 2013-07-08      5 days
##  4 2013-02-10 2013-03-12 2013-03-17     35 days
##  5 2012-10-25 2012-11-24 2012-11-28     34 days
##  6 2012-01-27 2012-02-26 2012-02-22     26 days
##  7 2013-08-13 2013-09-12 2013-09-09     27 days
##  8 2012-12-16 2013-01-15 2013-01-12     27 days
##  9 2012-05-14 2012-06-13 2012-07-01     48 days
## 10 2013-07-01 2013-07-31 2013-07-26     25 days
## # ... with 2,456 more rows, and 2 more variables: inv_pay_int <S4:
## #   Interval>, inv_pay_days <dbl>

transact %>%
  mutate(
    inv_pay_days = time_length(inv_pay_int, unit = "days")
  )

## # A tibble: 2,466 x 6
##       Invoice        Due    Payment days_to_pay
##        <date>     <date>     <date>      <time>
##  1 2013-01-02 2013-02-01 2013-01-15     13 days
##  2 2013-01-26 2013-02-25 2013-03-03     36 days
##  3 2013-07-03 2013-08-02 2013-07-08      5 days
##  4 2013-02-10 2013-03-12 2013-03-17     35 days
##  5 2012-10-25 2012-11-24 2012-11-28     34 days
##  6 2012-01-27 2012-02-26 2012-02-22     26 days
##  7 2013-08-13 2013-09-12 2013-09-09     27 days
##  8 2012-12-16 2013-01-15 2013-01-12     27 days
##  9 2012-05-14 2012-06-13 2012-07-01     48 days
## 10 2013-07-01 2013-07-31 2013-07-26     25 days
## # ... with 2,456 more rows, and 2 more variables: inv_pay_int <S4:
## #   Interval>, inv_pay_days <dbl>

transact %>%
  mutate(
    inv_pay_days = as.period(inv_pay_int)
  )

## # A tibble: 2,466 x 6
##       Invoice        Due    Payment days_to_pay
##        <date>     <date>     <date>      <time>
##  1 2013-01-02 2013-02-01 2013-01-15     13 days
##  2 2013-01-26 2013-02-25 2013-03-03     36 days
##  3 2013-07-03 2013-08-02 2013-07-08      5 days
##  4 2013-02-10 2013-03-12 2013-03-17     35 days
##  5 2012-10-25 2012-11-24 2012-11-28     34 days
##  6 2012-01-27 2012-02-26 2012-02-22     26 days
##  7 2013-08-13 2013-09-12 2013-09-09     27 days
##  8 2012-12-16 2013-01-15 2013-01-12     27 days
##  9 2012-05-14 2012-06-13 2012-07-01     48 days
## 10 2013-07-01 2013-07-31 2013-07-26     25 days
## # ... with 2,456 more rows, and 2 more variables: inv_pay_int <S4:
## #   Interval>, inv_pay_days <S4: Period>
