Data Manipulation in R with dplyr - Part 3 · Rsquared Academy Blog
…
Rename Columns

Rename the duration column to time_on_site.

ecom %>%
  rename(time_on_site = duration)

## # A tibble: 1,000 x 11
##       id referrer device bouncers n_visit n_pages time_on_site        country purchase order_items order_value
##    <int>    <chr>  <chr>    <chr>   <int>   <dbl>        <dbl>          <chr>    <chr>       <dbl>       <dbl>
##  1     1   google laptop     true      10       1          693 Czech Republic    false           0           0
##  2     2    yahoo tablet     true       9       1          459          Yemen    false           0           0
##  3     3   direct laptop     true       0       1          996         Brazil    false           0           0
##  4     4     bing tablet    false       3      18          468          China     true           6         434
##  5     5    yahoo mobile     true       9       1          955         Poland    false           0           0
##  6     6    yahoo laptop    false       5       5          135   South Africa    false           0           0
##  7     7    yahoo mobile     true      10       1           75     Bangladesh    false           0           0
##  8     8   direct mobile     true      10       1          908      Indonesia    false           0           0
##  9     9     bing mobile    false       3      19          209    Netherlands    false           0           0
## 10    10   google mobile     true       6       1          208 Czech Republic    false           0           0
## # ... with 990 more rows

Sampling Data

ecom %>%
  sample_n(700)
## # A tibble: 700 x 11
##       id referrer device bouncers n_visit n_pages duration     country purchase order_items order_value
##    <int>    <chr>  <chr>    <chr>   <int>   <dbl>    <dbl>       <chr>    <chr>       <dbl>       <dbl>
##  1   830   google mobile     true       3       1      918      Mexico    false           0           0
##  2   440    yahoo mobile    false      10      16      160 Philippines    false           3        1625
##  3   686   direct tablet    false       1       2       48      Mexico    false           0           0
##  4   359   direct laptop    false       3      13      260     Armenia     true           6        2694
##  5   547   google laptop     true       5       1      376      Belize    false           0           0
##  6   216    yahoo laptop     true       3       1      812      Brazil    false           0           0
##  7    98     bing mobile    false       3      18      288    Portugal     true           6         764
##  8   277   google tablet    false       8       1       22       China    false           8        1179
##  9   761     bing mobile    false       1      18      252      Sweden    false           0           0
## 10   217   google mobile    false       9       9      135      Poland    false           4        1758
## # ... with 690 more rows

ecom %>%
  group_by(referrer) %>%
  sample_n(100)
## # A tibble: 500 x 11
## # Groups:   referrer [5]
##       id referrer device bouncers n_visit n_pages duration   country purchase order_items order_value
##    <int>    <chr>  <chr>    <chr>   <int>   <dbl>    <dbl>     <chr>    <chr>       <dbl>       <dbl>
##  1   740     bing mobile    false       9       2       24 Indonesia    false           0           0
##  2   619     bing laptop     true      10       1      947    Sweden    false           0           0
##  3   812     bing mobile    false       1      12      168     Japan    false           0           0
##  4   810     bing mobile     true       3       1      119 Indonesia    false           0           0
##  5   174     bing mobile    false       9       1       22 Indonesia    false           0           0
##  6   604     bing tablet     true       6       1      567 Indonesia    false           0           0
##  7   869     bing laptop     true       6       1      199     China    false           0           0
##  8   743     bing tablet    false       1      18      180 Argentina    false           0           0
##  9   337     bing mobile    false       8      13      169     China    false           0           0
## 10   320     bing laptop    false       4       3       48    Sweden    false           3        2716
## # ... with 490 more rows

ecom %>%
  sample_frac(size = 0.7)
## # A tibble: 700 x 11
##       id referrer device bouncers n_visit n_pages duration     country purchase order_items order_value
##    <int>    <chr>  <chr>    <chr>   <int>   <dbl>    <dbl>       <chr>    <chr>       <dbl>       <dbl>
##  1   993   direct tablet     true       6       1      961     Albania    false           0           0
##  2   177     bing laptop    false       5       1       20    Thailand    false           3        1252
##  3   528   google mobile     true       1       1      367       Japan    false           0           0
##  4   736     bing tablet    false       1      14      168      Israel    false           0           0
##  5   940    yahoo tablet     true       4       1      326   Venezuela    false           0           0
##  6   698   google mobile    false       7      12      288      France     true           4        1669
##  7   372   social tablet     true       5       1      175    Pakistan    false           0           0
##  8   370   social tablet    false       2       8      208  Azerbaijan    false           0           0
##  9   690    yahoo mobile    false       5       8       80 New Zealand    false           9        2001
## 10   675   social mobile    false       6       6       96      Russia    false          10        1922
## # ... with 690 more rows

ecom %>%
  group_by(referrer) %>%
  sample_frac(0.3)
## # A tibble: 299 x 11
## # Groups:   referrer [5]
##       id referrer device bouncers n_visit n_pages duration        country purchase order_items order_value
##    <int>    <chr>  <chr>    <chr>   <int>   <dbl>    <dbl>          <chr>    <chr>       <dbl>       <dbl>
##  1   131     bing tablet    false       3      15      195         France    false           2         489
##  2   928     bing mobile     true       5       1      475       Portugal    false           0           0
##  3   740     bing mobile    false       9       2       24      Indonesia    false           0           0
##  4   835     bing tablet     true       4       1      585    Philippines    false           0           0
##  5    41     bing mobile    false       4      20      440 Czech Republic     true           3         184
##  6   705     bing laptop     true       3       1      271    Philippines    false           0           0
##  7   502     bing laptop     true       7       1      516       Portugal    false           0           0
##  8   351     bing tablet     true       8       1      577          China    false           0           0
##  9   963     bing laptop     true       4       1      857    Philippines    false           0           0
## 10   770     bing laptop    false       8       6      180          China    false           3         576
## # ... with 289 more rows
…
